{
    "image_size": [200,200],
    "num_classes": 4,
    "spotsize": 0.6,
    "sampling": [0.22, 0.24],
    "multifocus": [3, 10.0, 1.0],
    "log_dose": [3, 5],
    "blur": [0.01, 0.5],
    "focal_spread": [5, 20],
    "defocus": [0,400],
    "ctf_c30": [-15000, 15000],
    "ctf_c12": [0, 50],
    "ctf_c21": [0, 0],
    "ctf_c23": [0, 0],
    "ctf_c32": [0, 0],
    "ctf_c34": [0, 0],
    "ctf_c45": [0, 0],
    "mtf_c1": [0, 0.1],
    "mtf_c2": [0.3, 0.6],
    "mtf_c3": [2.0, 3.0],
    "debug": 100,
    "seed": [998616271, 738814483, 960996334, 235280404, 560394456]
}
